{
	"additionalNodes": [],
	"additionalParameters": {
		"root": {
			"height": 128,
			"width": 216
		}
	},
	"inputs": [ {
		"command": "BETS_AREA",
		"name": "Area"
	}, {
		"command": "Variable",
		"name": "Farks"
	} ],
	"outputs": [],
	"properties": {
		"6PRNp7hoj7ugaA9FHYqphnUuY1nzgrrF": {
			"height": 70,
			"title": "parallel",
			"width": 202,
			"x": 542,
			"y": 21
		},
		"HqgP4uBVUYNOf8oR2afZZgbUDbwtFLBx": {
			"height": 90,
			"title": "luaCondition",
			"width": 194,
			"x": 290,
			"y": 15
		},
		"NocdR9W8Xsaw8sFItg02PmRwfK9PHU0G": {
			"height": 54,
			"title": "failure",
			"width": 131,
			"x": 542,
			"y": 105
		},
		"jo2dyTm6bxILsFXeMdExGbwEb6lAADco": {
			"height": 94,
			"title": "store",
			"width": 602,
			"x": 786,
			"y": -55
		},
		"tKB4XuGo24wzAzz5qefvsVOWyTisrV83": {
			"height": 92,
			"title": "nota_caklos_testenemybot.ReclaimFeature",
			"width": 356,
			"x": 792,
			"y": 86
		}
	},
	"roles": [ {
		"categories": [],
		"name": "Role 0"
	} ],
	"root": {
		"children": [ {
			"children": [ {
				"children": [],
				"id": "jo2dyTm6bxILsFXeMdExGbwEb6lAADco",
				"nodeType": "luaCommand",
				"parameters": [ {
					"name": "var",
					"value": "reclaimables"
				}, {
					"name": "value",
					"value": "nota_caklos_testenemybot.GetMetalReclaimableInArea(Area.center, Area.radius)"
				}, {
					"name": "scriptName",
					"value": "store"
				} ],
				"scriptName": "store"
			}, {
				"children": [],
				"id": "tKB4XuGo24wzAzz5qefvsVOWyTisrV83",
				"nodeType": "luaCommand",
				"parameters": [ {
					"name": "farks",
					"value": "units"
				}, {
					"name": "features",
					"value": "reclaimables"
				}, {
					"name": "scriptName",
					"value": "nota_caklos_testenemybot.ReclaimFeature"
				} ],
				"scriptName": "nota_caklos_testenemybot.ReclaimFeature"
			} ],
			"id": "6PRNp7hoj7ugaA9FHYqphnUuY1nzgrrF",
			"nodeType": "parallel",
			"parameters": [ {
				"name": "mode",
				"value": "all-success"
			} ]
		}, {
			"children": [],
			"id": "NocdR9W8Xsaw8sFItg02PmRwfK9PHU0G",
			"nodeType": "failure",
			"parameters": []
		} ],
		"id": "HqgP4uBVUYNOf8oR2afZZgbUDbwtFLBx",
		"nodeType": "luaCondition",
		"parameters": [ {
			"name": "expression",
			"value": "#Farks > 0"
		}, {
			"name": "repeat",
			"value": "false"
		} ]
	}
}