{
	"additionalNodes": [],
	"additionalParameters": {
		"root": {
			"height": 190,
			"width": 263
		}
	},
	"inputs": [ {
		"command": "Variable",
		"name": "assigned"
	} ],
	"outputs": [ {
		"name": "unassigned"
	} ],
	"properties": {
		"G3CpN7PTLxOIFEkurFgMpdj0Zry9l4DY": {
			"height": 94,
			"title": "store",
			"width": 416,
			"x": 816,
			"y": 33
		},
		"LaMDZKSkNgBEXhvbPWIUFj2edPKJ48bs": {
			"height": 92,
			"title": "store",
			"width": 131,
			"x": 835,
			"y": -127
		},
		"c5S0lbkyfAAxbQ1Imz6NaswEbweQiZy3": {
			"height": 60,
			"title": "repeat",
			"width": 131,
			"x": 598,
			"y": 48
		},
		"dUKfXM6mvKfY0TX24kA8EG0FTU3DBIEE": {
			"height": 70,
			"title": "parallel",
			"width": 202,
			"x": 326,
			"y": 44
		},
		"hNxfhqsNO9LZDuUlF2zGUKAXOSIQXeuk": {
			"height": 90,
			"title": "luaCondition",
			"width": 194,
			"x": 593,
			"y": -111
		},
		"wPI9ek1uvCnujMHh1jhg8XO2rex2ucs8": {
			"height": 54,
			"title": "success",
			"width": 132,
			"x": 957,
			"y": -58
		}
	},
	"roles": [ {
		"categories": [],
		"name": "Role 0"
	}, {
		"categories": [],
		"name": "Role 2"
	} ],
	"root": {
		"children": [ {
			"children": [ {
				"children": [],
				"id": "LaMDZKSkNgBEXhvbPWIUFj2edPKJ48bs",
				"nodeType": "luaCommand",
				"parameters": [ {
					"name": "var",
					"value": "assigned"
				}, {
					"name": "value",
					"value": "{}"
				}, {
					"name": "scriptName",
					"value": "store"
				} ],
				"scriptName": "store"
			}, {
				"children": [],
				"id": "wPI9ek1uvCnujMHh1jhg8XO2rex2ucs8",
				"nodeType": "success",
				"parameters": []
			} ],
			"id": "hNxfhqsNO9LZDuUlF2zGUKAXOSIQXeuk",
			"nodeType": "luaCondition",
			"parameters": [ {
				"name": "expression",
				"value": "not assigned"
			}, {
				"name": "repeat",
				"value": "false"
			} ]
		}, {
			"children": [ {
				"children": [],
				"id": "G3CpN7PTLxOIFEkurFgMpdj0Zry9l4DY",
				"nodeType": "luaCommand",
				"parameters": [ {
					"name": "var",
					"value": "unassigned"
				}, {
					"name": "value",
					"value": "nota_caklos_testenemybot.GetIdleUnits(assigned)"
				}, {
					"name": "scriptName",
					"value": "store"
				} ],
				"scriptName": "store"
			} ],
			"id": "c5S0lbkyfAAxbQ1Imz6NaswEbweQiZy3",
			"nodeType": "repeat",
			"parameters": []
		} ],
		"id": "dUKfXM6mvKfY0TX24kA8EG0FTU3DBIEE",
		"nodeType": "parallel",
		"parameters": [ {
			"name": "mode",
			"value": "all-success"
		} ]
	}
}