{
	"additionalNodes": [],
	"additionalParameters": {
		"root": {
			"height": 148,
			"width": 244
		}
	},
	"inputs": [ {
		"command": "Variable",
		"name": "MissionInfo"
	}, {
		"command": "Variable",
		"name": "Lugers"
	}, {
		"command": "Variable",
		"name": "FrontlineSH"
	} ],
	"outputs": [],
	"properties": {
		"092CWTm8tnEikn5pETLefC5cJovXvM1f": {
			"height": 92,
			"title": "nota_caklos_testenemybot.ArtilleryAttack",
			"width": 321,
			"x": 1169,
			"y": 865
		},
		"1syvSHfy52r2EEzUs9BK01oc1ypAQ4S4": {
			"height": 94,
			"title": "store",
			"width": 484,
			"x": 1503,
			"y": 277
		},
		"7qNKwjaGZvZZvtokjQKjauC4hcSWI5x5": {
			"height": 94,
			"title": "store",
			"width": 542,
			"x": 1242,
			"y": -144
		},
		"9vw6swjpZcfZ3LWJmg6lCAIGGp7Orvtr": {
			"height": 94,
			"title": "store",
			"width": 486,
			"x": 1513,
			"y": -363
		},
		"AZBCuWkTLEuPEVvlrFW9gTVZMtNCkiK6": {
			"height": 94,
			"title": "store",
			"width": 542,
			"x": 1236,
			"y": 177
		},
		"DVF0ClGbbQWH52JMxc1LE5DgwT49awcq": {
			"height": 54,
			"title": "success",
			"width": 132,
			"x": 614,
			"y": 976
		},
		"EaRYXDh8p8OjqW5eiyoPE7mSm5hAiQiS": {
			"height": 90,
			"title": "luaCondition",
			"width": 194,
			"x": 858,
			"y": 861
		},
		"JlSeMqJ5uyfYlZPlgT9nRgTxsqOIm7eX": {
			"height": 90,
			"title": "luaCondition",
			"width": 194,
			"x": 1240,
			"y": -366
		},
		"KVSFMjDS895umYD8St39SC2i7LgFBvKz": {
			"height": 104,
			"title": "store",
			"width": 468,
			"x": 1023,
			"y": -650
		},
		"Ssvixi3YzhkXf5dRCx4oB1oCXe83rg4I": {
			"height": 90,
			"title": "luaCondition",
			"width": 194,
			"x": 840,
			"y": 450
		},
		"V5jB8T4TYTogMTTkPYUJQH247lOKfbp6": {
			"height": 60,
			"title": "sequence",
			"width": 143,
			"x": 1021,
			"y": -447
		},
		"W5NbbXaHDO7Is0DKrDo3daI6tBzK3JjX": {
			"height": 90,
			"title": "luaCondition",
			"width": 194,
			"x": 846,
			"y": 682
		},
		"Y06FCVs03Ws6Bg8sxgug3r8F853HqGZa": {
			"height": 54,
			"title": "success",
			"width": 132,
			"x": 1834,
			"y": -280
		},
		"YpmsJmcMEHss2UYZXy3yRCx87Q2GND18": {
			"height": 54,
			"title": "success",
			"width": 132,
			"x": 1811,
			"y": 365
		},
		"Z8fk5IV4GTVdDtatTEtLYJVqKPpxbQlW": {
			"height": 60,
			"title": "repeat",
			"width": 131,
			"x": 609,
			"y": -512
		},
		"ZcnrUAm3lQhhARuqZnU1Qr5t2vQwpzek": {
			"height": 90,
			"title": "luaCondition",
			"width": 194,
			"x": 1236,
			"y": -47
		},
		"abL01fN1CNziwwbyQJrJxTtr1u5PLPHe": {
			"height": 60,
			"title": "sequence",
			"width": 143,
			"x": 1019,
			"y": 186
		},
		"ejfIFZoNcacdC9mUFS5yMMi5zvcaM76O": {
			"height": 60,
			"title": "repeat",
			"width": 131,
			"x": 627,
			"y": 872
		},
		"lUDKaoHYvSqsMA354ZHnOawu3JKNYVJr": {
			"height": 94,
			"title": "store",
			"width": 543,
			"x": 1238,
			"y": -456
		},
		"o2UnVx2tX2cSI2PPhoxwlMFc3z2muhp3": {
			"height": 60,
			"title": "repeat",
			"width": 131,
			"x": 628,
			"y": 446
		},
		"o3kh0IGV4IWRh8N1EjMkiPMWIvZ0TAjW": {
			"height": 60,
			"title": "sequence",
			"width": 143,
			"x": 1025,
			"y": -135
		},
		"osoWtdQkoqINYKoz6tnwqoKwuNmp3eyz": {
			"height": 92,
			"title": "nota_caklos_testenemybot.ArtilleryAttack",
			"width": 321,
			"x": 1244,
			"y": 435
		},
		"oyhqZNEgxgdZiC3mnLdKZRxV0YXcRoJ7": {
			"height": 92,
			"title": "nota_caklos_testenemybot.MoveSpecificGroup",
			"width": 379,
			"x": 1178,
			"y": 958
		},
		"pgSRHtOWw3yIEMA3gcM3o5XGgr77f4Fm": {
			"height": 60,
			"title": "repeat",
			"width": 131,
			"x": 632,
			"y": 694
		},
		"puaRM4pf9OwaFk3xnE28JAJD0WDvjmkL": {
			"height": 92,
			"title": "nota_caklos_testenemybot.MoveSpecificGroup",
			"width": 379,
			"x": 1216,
			"y": 753
		},
		"qQRQVQgNslzlG9qUNO87N7YT18p9DqnG": {
			"height": 90,
			"title": "luaCondition",
			"width": 194,
			"x": 1238,
			"y": 276
		},
		"rV0Ec2BCPJ93QtM3D5jWBiALfNknu5Lb": {
			"height": 94,
			"title": "store",
			"width": 507,
			"x": 1236,
			"y": -545
		},
		"rfIKrbp6cS35bViS2xDhLEZJdT5z7vUA": {
			"height": 94,
			"title": "store",
			"width": 510,
			"x": 1234,
			"y": 88
		},
		"sXA07q2EN3AnqGp6K1XcOTkeV3UxWPDf": {
			"height": 70,
			"title": "parallel",
			"width": 202,
			"x": 320,
			"y": 23
		},
		"tWkIvbSn8OlbClVyVxMsA6lkrBhv2cXS": {
			"height": 60,
			"title": "sequence",
			"width": 143,
			"x": 793,
			"y": -514
		},
		"tadcEfEfbu1izNNyMHyx9nKoeIHthjUf": {
			"height": 94,
			"title": "store",
			"width": 484,
			"x": 1481,
			"y": -53
		},
		"v5Kpgg3BQIS33tluZHbxNt5QOyXxIW0W": {
			"height": 54,
			"title": "success",
			"width": 132,
			"x": 1815,
			"y": 40
		},
		"vcY4gGLRKrk1tbuPWZSdcFurnrj7pWQP": {
			"height": 92,
			"title": "nota_caklos_testenemybot.MoveSpecificGroup",
			"width": 379,
			"x": 1165,
			"y": 527
		},
		"yLK55QrcvEQhQmagmy5d3dZhN81nzDHF": {
			"height": 94,
			"title": "store",
			"width": 507,
			"x": 1240,
			"y": -233
		},
		"yzTCrz1xvebqwQivbyBEJRFmn8wzKLT3": {
			"height": 92,
			"title": "nota_caklos_testenemybot.ArtilleryAttack",
			"width": 321,
			"x": 1221,
			"y": 644
		}
	},
	"roles": [ {
		"categories": [],
		"name": "Role 0"
	} ],
	"root": {
		"children": [ {
			"children": [ {
				"children": [ {
					"children": [],
					"id": "KVSFMjDS895umYD8St39SC2i7LgFBvKz",
					"nodeType": "luaCommand",
					"parameters": [ {
						"name": "var",
						"value": "enemySH "
					}, {
						"name": "value",
						"value": "nota_caklos_testenemybot.testsens(MissionInfo.corridors)"
					}, {
						"name": "scriptName",
						"value": "store"
					} ],
					"scriptName": "store"
				}, {
					"children": [ {
						"children": [],
						"id": "rV0Ec2BCPJ93QtM3D5jWBiALfNknu5Lb",
						"nodeType": "luaCommand",
						"parameters": [ {
							"name": "var",
							"value": "TopEnemies"
						}, {
							"name": "value",
							"value": "nota_caklos_testenemybot.GetEnemyUnits(enemySH.Top, 500)"
						}, {
							"name": "scriptName",
							"value": "store"
						} ],
						"scriptName": "store"
					}, {
						"children": [],
						"id": "lUDKaoHYvSqsMA354ZHnOawu3JKNYVJr",
						"nodeType": "luaCommand",
						"parameters": [ {
							"name": "var",
							"value": "TopTargets"
						}, {
							"name": "value",
							"value": "core.FilterUnitsByCategory(TopEnemies, Categories.Common.buildings)"
						}, {
							"name": "scriptName",
							"value": "store"
						} ],
						"scriptName": "store"
					}, {
						"children": [ {
							"children": [],
							"id": "9vw6swjpZcfZ3LWJmg6lCAIGGp7Orvtr",
							"nodeType": "luaCommand",
							"parameters": [ {
								"name": "var",
								"value": "TopTargetPos"
							}, {
								"name": "value",
								"value": "nota_caklos_testenemybot.GetUnitPositionByID(TopTargets[1])"
							}, {
								"name": "scriptName",
								"value": "store"
							} ],
							"scriptName": "store"
						}, {
							"children": [],
							"id": "Y06FCVs03Ws6Bg8sxgug3r8F853HqGZa",
							"nodeType": "success",
							"parameters": []
						} ],
						"id": "JlSeMqJ5uyfYlZPlgT9nRgTxsqOIm7eX",
						"nodeType": "luaCondition",
						"parameters": [ {
							"name": "expression",
							"value": "#TopTargets > 0"
						}, {
							"name": "repeat",
							"value": "false"
						} ]
					} ],
					"id": "V5jB8T4TYTogMTTkPYUJQH247lOKfbp6",
					"nodeType": "sequence",
					"parameters": []
				}, {
					"children": [ {
						"children": [],
						"id": "yLK55QrcvEQhQmagmy5d3dZhN81nzDHF",
						"nodeType": "luaCommand",
						"parameters": [ {
							"name": "var",
							"value": "MidEnemies"
						}, {
							"name": "value",
							"value": "nota_caklos_testenemybot.GetEnemyUnits(enemySH.Middle, 500)"
						}, {
							"name": "scriptName",
							"value": "store"
						} ],
						"scriptName": "store"
					}, {
						"children": [],
						"id": "7qNKwjaGZvZZvtokjQKjauC4hcSWI5x5",
						"nodeType": "luaCommand",
						"parameters": [ {
							"name": "var",
							"value": "MidTargets"
						}, {
							"name": "value",
							"value": "core.FilterUnitsByCategory(MidEnemies, Categories.Common.buildings)"
						}, {
							"name": "scriptName",
							"value": "store"
						} ],
						"scriptName": "store"
					}, {
						"children": [ {
							"children": [],
							"id": "tadcEfEfbu1izNNyMHyx9nKoeIHthjUf",
							"nodeType": "luaCommand",
							"parameters": [ {
								"name": "var",
								"value": "MidTargetPos"
							}, {
								"name": "value",
								"value": "nota_caklos_testenemybot.GetUnitPositionByID(MidTargets[1])"
							}, {
								"name": "scriptName",
								"value": "store"
							} ],
							"scriptName": "store"
						}, {
							"children": [],
							"id": "v5Kpgg3BQIS33tluZHbxNt5QOyXxIW0W",
							"nodeType": "success",
							"parameters": []
						} ],
						"id": "ZcnrUAm3lQhhARuqZnU1Qr5t2vQwpzek",
						"nodeType": "luaCondition",
						"parameters": [ {
							"name": "expression",
							"value": "#MidTargets > 0"
						}, {
							"name": "repeat",
							"value": "false"
						} ]
					} ],
					"id": "o3kh0IGV4IWRh8N1EjMkiPMWIvZ0TAjW",
					"nodeType": "sequence",
					"parameters": []
				}, {
					"children": [ {
						"children": [],
						"id": "rfIKrbp6cS35bViS2xDhLEZJdT5z7vUA",
						"nodeType": "luaCommand",
						"parameters": [ {
							"name": "var",
							"value": "BotEnemies"
						}, {
							"name": "value",
							"value": "nota_caklos_testenemybot.GetEnemyUnits(enemySH.Bottom, 500)"
						}, {
							"name": "scriptName",
							"value": "store"
						} ],
						"scriptName": "store"
					}, {
						"children": [],
						"id": "AZBCuWkTLEuPEVvlrFW9gTVZMtNCkiK6",
						"nodeType": "luaCommand",
						"parameters": [ {
							"name": "var",
							"value": "BotTargets"
						}, {
							"name": "value",
							"value": "core.FilterUnitsByCategory(BotEnemies, Categories.Common.buildings)"
						}, {
							"name": "scriptName",
							"value": "store"
						} ],
						"scriptName": "store"
					}, {
						"children": [ {
							"children": [],
							"id": "1syvSHfy52r2EEzUs9BK01oc1ypAQ4S4",
							"nodeType": "luaCommand",
							"parameters": [ {
								"name": "var",
								"value": "BotTargetPos"
							}, {
								"name": "value",
								"value": "nota_caklos_testenemybot.GetUnitPositionByID(BotTargets[1])"
							}, {
								"name": "scriptName",
								"value": "store"
							} ],
							"scriptName": "store"
						}, {
							"children": [],
							"id": "YpmsJmcMEHss2UYZXy3yRCx87Q2GND18",
							"nodeType": "success",
							"parameters": []
						} ],
						"id": "qQRQVQgNslzlG9qUNO87N7YT18p9DqnG",
						"nodeType": "luaCondition",
						"parameters": [ {
							"name": "expression",
							"value": "#BotTargets > 0"
						}, {
							"name": "repeat",
							"value": "false"
						} ]
					} ],
					"id": "abL01fN1CNziwwbyQJrJxTtr1u5PLPHe",
					"nodeType": "sequence",
					"parameters": []
				} ],
				"id": "tWkIvbSn8OlbClVyVxMsA6lkrBhv2cXS",
				"nodeType": "sequence",
				"parameters": []
			} ],
			"id": "Z8fk5IV4GTVdDtatTEtLYJVqKPpxbQlW",
			"nodeType": "repeat",
			"parameters": []
		}, {
			"children": [ {
				"children": [ {
					"children": [],
					"id": "osoWtdQkoqINYKoz6tnwqoKwuNmp3eyz",
					"nodeType": "luaCommand",
					"parameters": [ {
						"name": "group",
						"value": "{Lugers[1],Lugers[4]}"
					}, {
						"name": "pos",
						"value": "TopTargetPos"
					}, {
						"name": "scriptName",
						"value": "nota_caklos_testenemybot.ArtilleryAttack"
					} ],
					"scriptName": "nota_caklos_testenemybot.ArtilleryAttack"
				}, {
					"children": [],
					"id": "vcY4gGLRKrk1tbuPWZSdcFurnrj7pWQP",
					"nodeType": "luaCommand",
					"parameters": [ {
						"name": "group",
						"value": "{Lugers[1],Lugers[4]}"
					}, {
						"name": "pos",
						"value": "FrontlineSH.Top"
					}, {
						"name": "scriptName",
						"value": "nota_caklos_testenemybot.MoveSpecificGroup"
					} ],
					"scriptName": "nota_caklos_testenemybot.MoveSpecificGroup"
				} ],
				"id": "Ssvixi3YzhkXf5dRCx4oB1oCXe83rg4I",
				"nodeType": "luaCondition",
				"parameters": [ {
					"name": "expression",
					"value": "#TopTargets > 0"
				}, {
					"name": "repeat",
					"value": "false"
				} ]
			} ],
			"id": "o2UnVx2tX2cSI2PPhoxwlMFc3z2muhp3",
			"nodeType": "repeat",
			"parameters": []
		}, {
			"children": [ {
				"children": [ {
					"children": [],
					"id": "yzTCrz1xvebqwQivbyBEJRFmn8wzKLT3",
					"nodeType": "luaCommand",
					"parameters": [ {
						"name": "group",
						"value": "{Lugers[2],Lugers[5]}"
					}, {
						"name": "pos",
						"value": "MidTargetPos"
					}, {
						"name": "scriptName",
						"value": "nota_caklos_testenemybot.ArtilleryAttack"
					} ],
					"scriptName": "nota_caklos_testenemybot.ArtilleryAttack"
				}, {
					"children": [],
					"id": "puaRM4pf9OwaFk3xnE28JAJD0WDvjmkL",
					"nodeType": "luaCommand",
					"parameters": [ {
						"name": "group",
						"value": "{Lugers[2],Lugers[5]}"
					}, {
						"name": "pos",
						"value": "FrontlineSH.Middle"
					}, {
						"name": "scriptName",
						"value": "nota_caklos_testenemybot.MoveSpecificGroup"
					} ],
					"scriptName": "nota_caklos_testenemybot.MoveSpecificGroup"
				} ],
				"id": "W5NbbXaHDO7Is0DKrDo3daI6tBzK3JjX",
				"nodeType": "luaCondition",
				"parameters": [ {
					"name": "expression",
					"value": "#MidTargets > 0"
				}, {
					"name": "repeat",
					"value": "false"
				} ]
			} ],
			"id": "pgSRHtOWw3yIEMA3gcM3o5XGgr77f4Fm",
			"nodeType": "repeat",
			"parameters": []
		}, {
			"children": [ {
				"children": [ {
					"children": [],
					"id": "092CWTm8tnEikn5pETLefC5cJovXvM1f",
					"nodeType": "luaCommand",
					"parameters": [ {
						"name": "group",
						"value": "{Lugers[3],Lugers[6]}"
					}, {
						"name": "pos",
						"value": "BotTargetPos"
					}, {
						"name": "scriptName",
						"value": "nota_caklos_testenemybot.ArtilleryAttack"
					} ],
					"scriptName": "nota_caklos_testenemybot.ArtilleryAttack"
				}, {
					"children": [],
					"id": "oyhqZNEgxgdZiC3mnLdKZRxV0YXcRoJ7",
					"nodeType": "luaCommand",
					"parameters": [ {
						"name": "group",
						"value": "{Lugers[3],Lugers[6]}"
					}, {
						"name": "pos",
						"value": "FrontlineSH.Bottom"
					}, {
						"name": "scriptName",
						"value": "nota_caklos_testenemybot.MoveSpecificGroup"
					} ],
					"scriptName": "nota_caklos_testenemybot.MoveSpecificGroup"
				} ],
				"id": "EaRYXDh8p8OjqW5eiyoPE7mSm5hAiQiS",
				"nodeType": "luaCondition",
				"parameters": [ {
					"name": "expression",
					"value": "#BotTargets > 0"
				}, {
					"name": "repeat",
					"value": "false"
				} ]
			} ],
			"id": "ejfIFZoNcacdC9mUFS5yMMi5zvcaM76O",
			"nodeType": "repeat",
			"parameters": []
		}, {
			"children": [],
			"id": "DVF0ClGbbQWH52JMxc1LE5DgwT49awcq",
			"nodeType": "success",
			"parameters": []
		} ],
		"id": "sXA07q2EN3AnqGp6K1XcOTkeV3UxWPDf",
		"nodeType": "parallel",
		"parameters": [ {
			"name": "mode",
			"value": "any-success"
		} ]
	}
}