{
	"additionalNodes": [],
	"additionalParameters": {
		"root": {
			"height": 148,
			"width": 263
		}
	},
	"inputs": [ {
		"command": "Variable",
		"name": "squads"
	}, {
		"command": "Variable",
		"name": "missions"
	} ],
	"outputs": [],
	"properties": {
		"6kBmQggihQOSdSG1KRoqhHH0iFKKVHsm": {
			"height": 90,
			"title": "luaCondition",
			"width": 270,
			"x": 576,
			"y": 20
		},
		"7AU7ma2xpPmedZnfz4KXFXWnQ0x9hMNf": {
			"height": 90,
			"title": "luaCondition",
			"width": 304,
			"x": 1421,
			"y": 907
		},
		"DJLqwk4ItDRzpSZZUeXqu3kre75IvIK1": {
			"height": 172,
			"title": "reference",
			"width": 305,
			"x": 1942,
			"y": 891
		},
		"DVaoswBShOfsU0MCVXm49LBZIEnw1p9f": {
			"height": 90,
			"title": "luaCondition",
			"width": 304,
			"x": 1428,
			"y": 368
		},
		"HMwe2QahtBAxzJTGELESdFWFTkjdmQFG": {
			"height": 94,
			"title": "store",
			"width": 555,
			"x": 606,
			"y": -149
		},
		"IJRkrCb3ztkJ8awVfrOfuQQ2mNBn3RVG": {
			"height": 60,
			"title": "repeat",
			"width": 131,
			"x": 1236,
			"y": 731
		},
		"RNohliDkKQtpUOopo1141H3v4zfaJZ69": {
			"height": 70,
			"title": "parallel",
			"width": 202,
			"x": 894,
			"y": 28
		},
		"Rr7KpN6ycpgiTLeactswmYKpG2423kYa": {
			"height": 90,
			"title": "luaCondition",
			"width": 338,
			"x": 1425,
			"y": -55
		},
		"S1EqpXMr5CO5GVJpwPsWL0MlvtBAtHI8": {
			"height": 151,
			"title": "reference",
			"width": 312,
			"x": 1974,
			"y": 142
		},
		"TIvWPrLHI5u3lXWjqGJH6voefIT3Vk72": {
			"height": 60,
			"title": "repeat",
			"width": 131,
			"x": 1226,
			"y": 902
		},
		"TrGjWkl6P2vwIg8LkujJJnOaqcfvtQWc": {
			"height": 58,
			"title": "sequence",
			"width": 143,
			"x": 383,
			"y": 32
		},
		"VUdheiZTSnnGXNlQjaXKwkqaEhVJMyQq": {
			"height": 172,
			"title": "reference",
			"width": 305,
			"x": 1942,
			"y": 718
		},
		"YLeZyMKjzmnFUPH0c7QPTPMuD5n2HtgV": {
			"height": 151,
			"title": "reference",
			"width": 312,
			"x": 2011,
			"y": -83
		},
		"YQ3c1t3TVw2QVhOxpaJq18JxuKsLgWLX": {
			"height": 90,
			"title": "luaCondition",
			"width": 304,
			"x": 1424,
			"y": 577
		},
		"eZxeiuI8AHSr9muZYyGEbaArnZuOnEJw": {
			"height": 60,
			"title": "repeat",
			"width": 131,
			"x": 1205,
			"y": 124
		},
		"gXsxXXGp1WWby1Ji9omyEhkGuJLJUCTe": {
			"height": 90,
			"title": "luaCondition",
			"width": 338,
			"x": 1427,
			"y": 148
		},
		"kFaD697eaRVQCHZxUGvzcbgcmYkGRJ4k": {
			"height": 94,
			"title": "store",
			"width": 198,
			"x": 587,
			"y": -358
		},
		"leG4SednfbmfJh6w0ksYIbEt9IQpZI0H": {
			"height": 60,
			"title": "repeat",
			"width": 131,
			"x": 1231,
			"y": 564
		},
		"mfBFYyDyV4nbiqOttXazu4KqUDb9CRyG": {
			"height": 60,
			"title": "repeat",
			"width": 131,
			"x": 1220,
			"y": -46
		},
		"qBJZ7liyJNRkhN90l6Mz48dP1cmibSe0": {
			"height": 151,
			"title": "reference",
			"width": 312,
			"x": 1962,
			"y": 341
		},
		"rjUVKXYJqK6Xmt1HeZ7p8PJPhRh4xgtM": {
			"height": 90,
			"title": "luaCondition",
			"width": 304,
			"x": 1418,
			"y": 728
		},
		"sI0lUod73sG7BAxWBFxHIf4szmy9Cksi": {
			"height": 60,
			"title": "repeat",
			"width": 131,
			"x": 1187,
			"y": 301
		},
		"wAXFS8xNR6TZKuU6IddJ97EOo1KdNBGf": {
			"height": 54,
			"title": "success",
			"width": 132,
			"x": 900,
			"y": 159
		},
		"xTPBxwKvMdLbqM3Z8z4mZJK1nIh8odaZ": {
			"height": 172,
			"title": "reference",
			"width": 305,
			"x": 1982,
			"y": 543
		},
		"yNekOGMRAFHdTelodiJTJmkAGTTbnawo": {
			"height": 94,
			"title": "store",
			"width": 533,
			"x": 584,
			"y": -254
		}
	},
	"roles": [ {
		"categories": [ "nota_caklos_testenemybot.Zeus" ],
		"name": "Role 0"
	}, {
		"categories": [],
		"name": "Role 2"
	} ],
	"root": {
		"children": [ {
			"children": [],
			"id": "kFaD697eaRVQCHZxUGvzcbgcmYkGRJ4k",
			"nodeType": "luaCommand",
			"parameters": [ {
				"name": "var",
				"value": "MissionInfo"
			}, {
				"name": "value",
				"value": "core.MissionInfo()"
			}, {
				"name": "scriptName",
				"value": "store"
			} ],
			"scriptName": "store"
		}, {
			"children": [],
			"id": "yNekOGMRAFHdTelodiJTJmkAGTTbnawo",
			"nodeType": "luaCommand",
			"parameters": [ {
				"name": "var",
				"value": "corPaths"
			}, {
				"name": "value",
				"value": "nota_caklos_testenemybot.swampCorridorPaths(MissionInfo.corridors)"
			}, {
				"name": "scriptName",
				"value": "store"
			} ],
			"scriptName": "store"
		}, {
			"children": [],
			"id": "HMwe2QahtBAxzJTGELESdFWFTkjdmQFG",
			"nodeType": "luaCommand",
			"parameters": [ {
				"name": "var",
				"value": "frontSH"
			}, {
				"name": "value",
				"value": "nota_caklos_testenemybot.GetFrontlineStrongholds(MissionInfo.corridors)"
			}, {
				"name": "scriptName",
				"value": "store"
			} ],
			"scriptName": "store"
		}, {
			"children": [ {
				"children": [ {
					"children": [ {
						"children": [ {
							"children": [],
							"id": "YLeZyMKjzmnFUPH0c7QPTPMuD5n2HtgV",
							"nodeType": "reference",
							"parameters": [ {
								"name": "behaviourName",
								"value": "nota_caklos_testenemybot.BattleBeh"
							} ],
							"referenceInputs": [ {
								"name": "path",
								"value": "corPaths.Top"
							}, {
								"name": "squad",
								"value": "squads[1]"
							} ],
							"referenceOutputs": []
						} ],
						"id": "Rr7KpN6ycpgiTLeactswmYKpG2423kYa",
						"nodeType": "luaCondition",
						"parameters": [ {
							"name": "expression",
							"value": "squads[1] ~= nil and #squads[1] > 0"
						}, {
							"name": "repeat",
							"value": "false"
						} ]
					} ],
					"id": "mfBFYyDyV4nbiqOttXazu4KqUDb9CRyG",
					"nodeType": "repeat",
					"parameters": []
				}, {
					"children": [ {
						"children": [ {
							"children": [],
							"id": "S1EqpXMr5CO5GVJpwPsWL0MlvtBAtHI8",
							"nodeType": "reference",
							"parameters": [ {
								"name": "behaviourName",
								"value": "nota_caklos_testenemybot.BattleBeh"
							} ],
							"referenceInputs": [ {
								"name": "path",
								"value": "corPaths.Middle"
							}, {
								"name": "squad",
								"value": "squads[2]"
							} ],
							"referenceOutputs": []
						} ],
						"id": "gXsxXXGp1WWby1Ji9omyEhkGuJLJUCTe",
						"nodeType": "luaCondition",
						"parameters": [ {
							"name": "expression",
							"value": "squads[2] ~= nil and #squads[2] > 0"
						}, {
							"name": "repeat",
							"value": "false"
						} ]
					} ],
					"id": "eZxeiuI8AHSr9muZYyGEbaArnZuOnEJw",
					"nodeType": "repeat",
					"parameters": []
				}, {
					"children": [ {
						"children": [ {
							"children": [],
							"id": "qBJZ7liyJNRkhN90l6Mz48dP1cmibSe0",
							"nodeType": "reference",
							"parameters": [ {
								"name": "behaviourName",
								"value": "nota_caklos_testenemybot.BattleBeh"
							} ],
							"referenceInputs": [ {
								"name": "path",
								"value": "corPaths.Bottom"
							}, {
								"name": "squad",
								"value": "squads[3]"
							} ],
							"referenceOutputs": []
						} ],
						"id": "DVaoswBShOfsU0MCVXm49LBZIEnw1p9f",
						"nodeType": "luaCondition",
						"parameters": [ {
							"name": "expression",
							"value": "squads[3] ~= nil and #squads[3] > 0"
						}, {
							"name": "repeat",
							"value": "false"
						} ]
					} ],
					"id": "sI0lUod73sG7BAxWBFxHIf4szmy9Cksi",
					"nodeType": "repeat",
					"parameters": []
				}, {
					"children": [ {
						"children": [ {
							"children": [],
							"id": "xTPBxwKvMdLbqM3Z8z4mZJK1nIh8odaZ",
							"nodeType": "reference",
							"parameters": [ {
								"name": "behaviourName",
								"value": "nota_caklos_testenemybot.FarkBeh"
							} ],
							"referenceInputs": [ {
								"name": "path",
								"value": "corPaths.Top"
							}, {
								"name": "squad",
								"value": "squads[4]"
							}, {
								"name": "frontStronghold",
								"value": "frontSH.Top"
							} ],
							"referenceOutputs": []
						} ],
						"id": "YQ3c1t3TVw2QVhOxpaJq18JxuKsLgWLX",
						"nodeType": "luaCondition",
						"parameters": [ {
							"name": "expression",
							"value": "squads[4] ~= nil and #squads[4] > 0"
						}, {
							"name": "repeat",
							"value": "false"
						} ]
					} ],
					"id": "leG4SednfbmfJh6w0ksYIbEt9IQpZI0H",
					"nodeType": "repeat",
					"parameters": []
				}, {
					"children": [ {
						"children": [ {
							"children": [],
							"id": "VUdheiZTSnnGXNlQjaXKwkqaEhVJMyQq",
							"nodeType": "reference",
							"parameters": [ {
								"name": "behaviourName",
								"value": "nota_caklos_testenemybot.FarkBeh"
							} ],
							"referenceInputs": [ {
								"name": "path",
								"value": "corPaths.Middle"
							}, {
								"name": "squad",
								"value": "squads[5]"
							}, {
								"name": "frontStronghold",
								"value": "frontSH.Middle"
							} ],
							"referenceOutputs": []
						} ],
						"id": "rjUVKXYJqK6Xmt1HeZ7p8PJPhRh4xgtM",
						"nodeType": "luaCondition",
						"parameters": [ {
							"name": "expression",
							"value": "squads[5] ~= nil and #squads[5] > 0"
						}, {
							"name": "repeat",
							"value": "false"
						} ]
					} ],
					"id": "IJRkrCb3ztkJ8awVfrOfuQQ2mNBn3RVG",
					"nodeType": "repeat",
					"parameters": []
				}, {
					"children": [ {
						"children": [ {
							"children": [],
							"id": "DJLqwk4ItDRzpSZZUeXqu3kre75IvIK1",
							"nodeType": "reference",
							"parameters": [ {
								"name": "behaviourName",
								"value": "nota_caklos_testenemybot.FarkBeh"
							} ],
							"referenceInputs": [ {
								"name": "path",
								"value": "corPaths.Bottom"
							}, {
								"name": "squad",
								"value": "squads[6]"
							}, {
								"name": "frontStronghold",
								"value": "frontSH.Bottom"
							} ],
							"referenceOutputs": []
						} ],
						"id": "7AU7ma2xpPmedZnfz4KXFXWnQ0x9hMNf",
						"nodeType": "luaCondition",
						"parameters": [ {
							"name": "expression",
							"value": "squads[6] ~= nil and #squads[6] > 0"
						}, {
							"name": "repeat",
							"value": "false"
						} ]
					} ],
					"id": "TIvWPrLHI5u3lXWjqGJH6voefIT3Vk72",
					"nodeType": "repeat",
					"parameters": []
				} ],
				"id": "RNohliDkKQtpUOopo1141H3v4zfaJZ69",
				"nodeType": "parallel",
				"parameters": [ {
					"name": "mode",
					"value": "all-success"
				} ]
			}, {
				"children": [],
				"id": "wAXFS8xNR6TZKuU6IddJ97EOo1KdNBGf",
				"nodeType": "success",
				"parameters": []
			} ],
			"id": "6kBmQggihQOSdSG1KRoqhHH0iFKKVHsm",
			"nodeType": "luaCondition",
			"parameters": [ {
				"name": "expression",
				"value": "missions ~= nil and #squads > 0"
			}, {
				"name": "repeat",
				"value": "false"
			} ]
		} ],
		"id": "TrGjWkl6P2vwIg8LkujJJnOaqcfvtQWc",
		"nodeType": "sequence",
		"parameters": []
	}
}