{
	"additionalNodes": [],
	"additionalParameters": {
		"root": {
			"height": 88,
			"width": 229
		}
	},
	"inputs": [],
	"outputs": [],
	"properties": {
		"322IOXYHt1aXygGNSrL1f2nAsePKWuTX": {
			"height": 60,
			"title": "repeat",
			"width": 131,
			"x": 1086,
			"y": 90
		},
		"7xp5nC0D7Nq4dOTK5thOgHRLTvFPQnm5": {
			"height": 70,
			"title": "roleSplit",
			"width": 202,
			"x": 269,
			"y": 6
		},
		"AwchBY7BLyzvIvInYNTc7p9Yer3tb6Ek": {
			"height": 72,
			"title": "nota_caklos_testenemybot.Follow",
			"width": 276,
			"x": 806,
			"y": 271
		},
		"CzGSZtokCklTXqbyQjGhPm6Ig97X30w2": {
			"height": 72,
			"title": "nota_caklos_testenemybot.Sail",
			"width": 258,
			"x": 1284,
			"y": 174
		},
		"HrV6X24NzOHJsL3PiTFvp3MXVhDXtfec": {
			"height": 90,
			"title": "luaCondition",
			"width": 194,
			"x": 540,
			"y": 264
		},
		"KLbnsLaxBw5UFR3gLMHQQFCw5s4EzFME": {
			"height": 94,
			"title": "store",
			"width": 323,
			"x": 1285,
			"y": -106
		},
		"MrVHlhZhD1JE3987hjKb7UvXCHA2ra1r": {
			"height": 94,
			"title": "store",
			"width": 545,
			"x": 1281,
			"y": 78
		},
		"MyKbyygm0bjjmYF0q5VMbgijmhUCfRoo": {
			"height": 90,
			"title": "luaCondition",
			"width": 194,
			"x": 545,
			"y": -1
		},
		"S9bZ43CyROkmR3uqOCVk8o9YBUiZsMbA": {
			"height": 60,
			"title": "repeat",
			"width": 131,
			"x": 1088,
			"y": 179
		},
		"UUBpPVdXuATF5w6hFlqv1sRXZGoXgvbG": {
			"height": 60,
			"title": "repeat",
			"width": 131,
			"x": 1082,
			"y": -2
		},
		"gWe3Nrg3GEXJ75lW0RTfmh1Wjx5CxR7F": {
			"height": 92,
			"title": "store",
			"width": 131,
			"x": 1085,
			"y": -202
		},
		"p0SaqkQ7Ar4kNhF4uQMRNjXs66Al5aqF": {
			"height": 70,
			"title": "parallel",
			"width": 202,
			"x": 807,
			"y": 6
		},
		"vLo4yxW13hZ7YdVtt1X2r1oRvGvru3XP": {
			"height": 60,
			"title": "repeat",
			"width": 131,
			"x": 1084,
			"y": -94
		},
		"wt2ERJMvMcdN20HnUK3N4DflrfjAWcuT": {
			"height": 94,
			"title": "store",
			"width": 176,
			"x": 1282,
			"y": -14
		}
	},
	"roles": [ {
		"categories": [ "nota_caklos_testenemybot.Commander" ],
		"name": "Commander"
	}, {
		"categories": [],
		"name": "Others"
	} ],
	"root": {
		"children": [ {
			"children": [ {
				"children": [ {
					"children": [],
					"id": "gWe3Nrg3GEXJ75lW0RTfmh1Wjx5CxR7F",
					"nodeType": "luaCommand",
					"parameters": [ {
						"name": "var",
						"value": "leaderID"
					}, {
						"name": "value",
						"value": "units[1]"
					}, {
						"name": "scriptName",
						"value": "store"
					} ],
					"scriptName": "store"
				}, {
					"children": [ {
						"children": [],
						"id": "KLbnsLaxBw5UFR3gLMHQQFCw5s4EzFME",
						"nodeType": "luaCommand",
						"parameters": [ {
							"name": "var",
							"value": "wind"
						}, {
							"name": "value",
							"value": "nota_caklos_testenemybot.GetWind()"
						}, {
							"name": "scriptName",
							"value": "store"
						} ],
						"scriptName": "store"
					} ],
					"id": "vLo4yxW13hZ7YdVtt1X2r1oRvGvru3XP",
					"nodeType": "repeat",
					"parameters": []
				}, {
					"children": [ {
						"children": [],
						"id": "wt2ERJMvMcdN20HnUK3N4DflrfjAWcuT",
						"nodeType": "luaCommand",
						"parameters": [ {
							"name": "var",
							"value": "comPos"
						}, {
							"name": "value",
							"value": "core.Position()"
						}, {
							"name": "scriptName",
							"value": "store"
						} ],
						"scriptName": "store"
					} ],
					"id": "UUBpPVdXuATF5w6hFlqv1sRXZGoXgvbG",
					"nodeType": "repeat",
					"parameters": []
				}, {
					"children": [ {
						"children": [],
						"id": "MrVHlhZhD1JE3987hjKb7UvXCHA2ra1r",
						"nodeType": "luaCommand",
						"parameters": [ {
							"name": "var",
							"value": "comTar"
						}, {
							"name": "value",
							"value": "{x = comPos.x + wind.dirX*20, z = comPos.z + wind.dirZ*20}"
						}, {
							"name": "scriptName",
							"value": "store"
						} ],
						"scriptName": "store"
					} ],
					"id": "322IOXYHt1aXygGNSrL1f2nAsePKWuTX",
					"nodeType": "repeat",
					"parameters": []
				}, {
					"children": [ {
						"children": [],
						"id": "CzGSZtokCklTXqbyQjGhPm6Ig97X30w2",
						"nodeType": "luaCommand",
						"parameters": [ {
							"name": "pos",
							"value": "comTar"
						}, {
							"name": "scriptName",
							"value": "nota_caklos_testenemybot.Sail"
						} ],
						"scriptName": "nota_caklos_testenemybot.Sail"
					} ],
					"id": "S9bZ43CyROkmR3uqOCVk8o9YBUiZsMbA",
					"nodeType": "repeat",
					"parameters": []
				} ],
				"id": "p0SaqkQ7Ar4kNhF4uQMRNjXs66Al5aqF",
				"nodeType": "parallel",
				"parameters": [ {
					"name": "mode",
					"value": "all-success"
				} ]
			} ],
			"id": "MyKbyygm0bjjmYF0q5VMbgijmhUCfRoo",
			"nodeType": "luaCondition",
			"parameters": [ {
				"name": "expression",
				"value": "#units ~= 0"
			}, {
				"name": "repeat",
				"value": "false"
			} ]
		}, {
			"children": [ {
				"children": [],
				"id": "AwchBY7BLyzvIvInYNTc7p9Yer3tb6Ek",
				"nodeType": "luaCommand",
				"parameters": [ {
					"name": "leader",
					"value": "leaderID"
				}, {
					"name": "scriptName",
					"value": "nota_caklos_testenemybot.Follow"
				} ],
				"scriptName": "nota_caklos_testenemybot.Follow"
			} ],
			"id": "HrV6X24NzOHJsL3PiTFvp3MXVhDXtfec",
			"nodeType": "luaCondition",
			"parameters": [ {
				"name": "expression",
				"value": "#units ~= 0"
			}, {
				"name": "repeat",
				"value": "true"
			} ]
		} ],
		"id": "7xp5nC0D7Nq4dOTK5thOgHRLTvFPQnm5",
		"nodeType": "roleSplit",
		"parameters": [ {
			"name": "mode",
			"value": "any-result"
		} ]
	}
}