{
	"additionalNodes": [],
	"additionalParameters": {
		"root": {
			"height": 208,
			"width": 230
		}
	},
	"inputs": [ {
		"command": "Variable",
		"name": "AllUnits"
	}, {
		"command": "Variable",
		"name": "missionInfo"
	}, {
		"command": "Variable",
		"name": "UnitsAtTop"
	}, {
		"command": "Variable",
		"name": "UnitsAtBot"
	}, {
		"command": "Variable",
		"name": "UnitsAtMid"
	}, {
		"command": "Variable",
		"name": "UnitsAtBase"
	} ],
	"outputs": [],
	"properties": {
		"0PDug3tOLjUtV9mK2O9FidvmsdafXe63": {
			"height": 94,
			"title": "store",
			"width": 630,
			"x": 1043,
			"y": -333
		},
		"117pHiFLwIjHehFcj0VcslovTJjchxIm": {
			"height": 90,
			"title": "luaCondition",
			"width": 194,
			"x": 1055,
			"y": 1114
		},
		"1p9CBROYn7JOf6WaXnzv9m8NSGGiIaSm": {
			"height": 114,
			"title": "nota_caklos_testenemybot.BuyUnitSwampDota",
			"width": 361,
			"x": 1349,
			"y": -10
		},
		"1qet28TSsyClezicRyibWMBOj6uKVpOI": {
			"height": 114,
			"title": "nota_caklos_testenemybot.BuyUnitSwampDota",
			"width": 361,
			"x": 1584,
			"y": 865
		},
		"24NqTschLQxwauRNint8xRTMEbtJMOEL": {
			"height": 94,
			"title": "store",
			"width": 670,
			"x": 1040,
			"y": 974
		},
		"2Zya0Tg1DdzqPebdMU2EVJNAIWxZ0Vxl": {
			"height": 114,
			"title": "nota_caklos_testenemybot.BuyUnitSwampDota",
			"width": 361,
			"x": 1575,
			"y": 1189
		},
		"7V6fUUYNVvijBHSzxRGSCTBjUsPiQHO9": {
			"height": 94,
			"title": "store",
			"width": 674,
			"x": 1276,
			"y": 212
		},
		"8ITHF9lJw5OoFeK6ZQ7ltn1Q4OmWuBC1": {
			"height": 90,
			"title": "luaCondition",
			"width": 194,
			"x": 1048,
			"y": -224
		},
		"ER8DqDo4vtgM9W7JIZVbAk9og9JGjO4z": {
			"height": 112,
			"title": "nota_caklos_testenemybot.UpgradeLaneSwampDota",
			"width": 399,
			"x": 1334,
			"y": 1553
		},
		"FpLZLvf74H81LLg5VrihV3g1Fbe87SjW": {
			"height": 60,
			"title": "sequence",
			"width": 143,
			"x": 1080,
			"y": 595
		},
		"GZ93DhbeirxznTY7i987gjUEmuwNmPAn": {
			"height": 60,
			"title": "sequence",
			"width": 143,
			"x": 1083,
			"y": 799
		},
		"HBD7Hfg1qiEDYqc9YlHXRQSNudUXFGpM": {
			"height": 93,
			"title": "luaCondition",
			"width": 240,
			"x": 1287,
			"y": 669
		},
		"HuTQIMiM1lhelQZAiud1lgZD4wL7Bvjf": {
			"height": 90,
			"title": "luaCondition",
			"width": 194,
			"x": 1053,
			"y": -2
		},
		"I5AxVQQ7ga3if2jkWTBvcNLZ4seaR10l": {
			"height": 60,
			"title": "sequence",
			"width": 143,
			"x": 853,
			"y": 1446
		},
		"IZzJudCEnzBSYm7NgUMlEIqwdMMnkW0M": {
			"height": 60,
			"title": "sequence",
			"width": 143,
			"x": 872,
			"y": -213
		},
		"JgzbzORVgl2aFj7ohHflGL9YjQd73Jfu": {
			"height": 70,
			"title": "selector",
			"width": 131,
			"x": 872,
			"y": 391
		},
		"KHyirl0u8PH7QVH8zuoseqlDBDWUnaSd": {
			"height": 114,
			"title": "nota_caklos_testenemybot.BuyUnitSwampDota",
			"width": 361,
			"x": 1346,
			"y": 1427
		},
		"KM0GbLpNynNXfr5AUHKPRw6UwOj785NN": {
			"height": 90,
			"title": "luaCondition",
			"width": 272,
			"x": 963,
			"y": 1673
		},
		"MCOLTg80PRpdZQULLEYy9FMkX97Hyxfu": {
			"height": 90,
			"title": "luaCondition",
			"width": 194,
			"x": 1301,
			"y": 1080
		},
		"Mpi29JYBiU6Dqk7QYm9jExstahCxy4Ff": {
			"height": 60,
			"title": "sequence",
			"width": 143,
			"x": 1082,
			"y": 394
		},
		"P0ckCTgUfjSqQHrXtl4JpcgvZKAeWMc8": {
			"height": 90,
			"title": "luaCondition",
			"width": 194,
			"x": 1302,
			"y": 1197
		},
		"RBxMSrz3q4RTlF7EklVtRteR4fjIh1sE": {
			"height": 94,
			"title": "store",
			"width": 674,
			"x": 1278,
			"y": 564
		},
		"SOIg194pALWg93KKTtNIq5W4iU6bfLKQ": {
			"height": 114,
			"title": "nota_caklos_testenemybot.BuyUnitSwampDota",
			"width": 361,
			"x": 1579,
			"y": 452
		},
		"Scbkg51yECDosrLVGgQTKlZtRvRbKbR2": {
			"height": 93,
			"title": "luaCondition",
			"width": 237,
			"x": 1289,
			"y": 468
		},
		"UgNVfWISzlBhPk5vxNGmCt5ZGZJDVCLj": {
			"height": 60,
			"title": "sequence",
			"width": 143,
			"x": 847,
			"y": 1087
		},
		"WIrAZ6ZM0UVR8lhjGR91ZyaPIGsXXdTk": {
			"height": 94,
			"title": "store",
			"width": 674,
			"x": 1280,
			"y": 363
		},
		"YxDujK975S69GTDoriwrlSk8GaLSmz3k": {
			"height": 60,
			"title": "sequence",
			"width": 143,
			"x": 878,
			"y": 9
		},
		"Zc5gEVxACW4SXtqap6U1hl3HF3n4ZZ7D": {
			"height": 114,
			"title": "nota_caklos_testenemybot.BuyUnitSwampDota",
			"width": 361,
			"x": 1581,
			"y": 656
		},
		"bh2Fts709FLJQvOH7jXeCXx44KMtkGjl": {
			"height": 93,
			"title": "luaCondition",
			"width": 237,
			"x": 1290,
			"y": 873
		},
		"bi8SQEJE8xCc8u3Qp1jjoudzCjrGQ7lQ": {
			"height": 94,
			"title": "store",
			"width": 674,
			"x": 1277,
			"y": 122
		},
		"cGb8EB3zdSmics9YtoTyCkUaw4YhR6tx": {
			"height": 60,
			"title": "sequence",
			"width": 143,
			"x": 1071,
			"y": 152
		},
		"dnK2pBxwOGU5aTVHRRQkX1aNNhylrCkM": {
			"height": 94,
			"title": "store",
			"width": 670,
			"x": 1045,
			"y": 1326
		},
		"eySY2FUBi9GJcOWaAU996DRywnbb01WR": {
			"height": 114,
			"title": "nota_caklos_testenemybot.BuyUnitSwampDota",
			"width": 361,
			"x": 1344,
			"y": -232
		},
		"f4hLRvtjwqFLq8Kwqn57E2zuUDteJMSL": {
			"height": 54,
			"title": "failure",
			"width": 131,
			"x": 1273,
			"y": 301
		},
		"fd0WLldZgzNLswq3LDb8vi8z8Y7tZgQR": {
			"height": 114,
			"title": "nota_caklos_testenemybot.BuyUnitSwampDota",
			"width": 361,
			"x": 1574,
			"y": 1072
		},
		"hXU43OvJZoZc6xYI06YSLlv5ghWfHV0r": {
			"height": 90,
			"title": "luaCondition",
			"width": 272,
			"x": 662,
			"y": 1560
		},
		"lVJvAKPSvbeNsA19cYNvimWb3CYByZcd": {
			"height": 112,
			"title": "nota_caklos_testenemybot.UpgradeLaneSwampDota",
			"width": 399,
			"x": 1342,
			"y": 1665
		},
		"mqrrHl5JKw9xNQFmP2opCxHhpCTQJSeO": {
			"height": 90,
			"title": "luaCondition",
			"width": 194,
			"x": 1050,
			"y": 1435
		},
		"t8V4e7kI1HmdPG6qCf40XtiCbOxe93Tt": {
			"height": 112,
			"title": "nota_caklos_testenemybot.UpgradeLaneSwampDota",
			"width": 399,
			"x": 1344,
			"y": 1776
		},
		"xM8c1RU9L2UHZ6EhcrSnibeg2pYGBaAf": {
			"height": 94,
			"title": "store",
			"width": 674,
			"x": 1281,
			"y": 768
		},
		"yNt6nlIlRDfmjHSJrAkTzXrFD6lWYOQn": {
			"height": 70,
			"title": "parallel",
			"width": 202,
			"x": 358,
			"y": 4
		},
		"zgAXVfFvktyj1iNmMxIRU1nx13La2Jwz": {
			"height": 94,
			"title": "store",
			"width": 670,
			"x": 1048,
			"y": -111
		}
	},
	"roles": [ {
		"categories": [],
		"name": "Role 0"
	} ],
	"root": {
		"children": [ {
			"children": [ {
				"children": [],
				"id": "0PDug3tOLjUtV9mK2O9FidvmsdafXe63",
				"nodeType": "luaCommand",
				"parameters": [ {
					"name": "var",
					"value": "seers"
				}, {
					"name": "value",
					"value": "core.FilterUnitsByCategory(AllUnits, Categories.nota_caklos_testenemybot.Seers)"
				}, {
					"name": "scriptName",
					"value": "store"
				} ],
				"scriptName": "store"
			}, {
				"children": [ {
					"children": [],
					"id": "eySY2FUBi9GJcOWaAU996DRywnbb01WR",
					"nodeType": "luaCommand",
					"parameters": [ {
						"name": "unitName",
						"value": "\"armseer\""
					}, {
						"name": "count",
						"value": "1"
					}, {
						"name": "prices",
						"value": "missionInfo.buy"
					}, {
						"name": "scriptName",
						"value": "nota_caklos_testenemybot.BuyUnitSwampDota"
					} ],
					"scriptName": "nota_caklos_testenemybot.BuyUnitSwampDota"
				} ],
				"id": "8ITHF9lJw5OoFeK6ZQ7ltn1Q4OmWuBC1",
				"nodeType": "luaCondition",
				"parameters": [ {
					"name": "expression",
					"value": "#seers < 3"
				}, {
					"name": "repeat",
					"value": "false"
				} ]
			} ],
			"id": "IZzJudCEnzBSYm7NgUMlEIqwdMMnkW0M",
			"nodeType": "sequence",
			"parameters": []
		}, {
			"children": [ {
				"children": [],
				"id": "zgAXVfFvktyj1iNmMxIRU1nx13La2Jwz",
				"nodeType": "luaCommand",
				"parameters": [ {
					"name": "var",
					"value": "atlases"
				}, {
					"name": "value",
					"value": "core.FilterUnitsByCategory(AllUnits, Categories.nota_caklos_testenemybot.Atlases)"
				}, {
					"name": "scriptName",
					"value": "store"
				} ],
				"scriptName": "store"
			}, {
				"children": [ {
					"children": [],
					"id": "1p9CBROYn7JOf6WaXnzv9m8NSGGiIaSm",
					"nodeType": "luaCommand",
					"parameters": [ {
						"name": "unitName",
						"value": "\"armatlas\""
					}, {
						"name": "count",
						"value": "1"
					}, {
						"name": "prices",
						"value": "missionInfo.buy"
					}, {
						"name": "scriptName",
						"value": "nota_caklos_testenemybot.BuyUnitSwampDota"
					} ],
					"scriptName": "nota_caklos_testenemybot.BuyUnitSwampDota"
				} ],
				"id": "HuTQIMiM1lhelQZAiud1lgZD4wL7Bvjf",
				"nodeType": "luaCondition",
				"parameters": [ {
					"name": "expression",
					"value": "#atlases < 2"
				}, {
					"name": "repeat",
					"value": "false"
				} ]
			} ],
			"id": "YxDujK975S69GTDoriwrlSk8GaLSmz3k",
			"nodeType": "sequence",
			"parameters": []
		}, {
			"children": [ {
				"children": [ {
					"children": [],
					"id": "bi8SQEJE8xCc8u3Qp1jjoudzCjrGQ7lQ",
					"nodeType": "luaCommand",
					"parameters": [ {
						"name": "var",
						"value": "boxes"
					}, {
						"name": "value",
						"value": "core.FilterUnitsByCategory(UnitsAtBase, Categories.nota_caklos_testenemybot.DeathBoxes)"
					}, {
						"name": "scriptName",
						"value": "store"
					} ],
					"scriptName": "store"
				}, {
					"children": [],
					"id": "7V6fUUYNVvijBHSzxRGSCTBjUsPiQHO9",
					"nodeType": "luaCommand",
					"parameters": [ {
						"name": "var",
						"value": "AllBoxes"
					}, {
						"name": "value",
						"value": "core.FilterUnitsByCategory(AllUnits, Categories.nota_caklos_testenemybot.DeathBoxes)"
					}, {
						"name": "scriptName",
						"value": "store"
					} ],
					"scriptName": "store"
				}, {
					"children": [],
					"id": "f4hLRvtjwqFLq8Kwqn57E2zuUDteJMSL",
					"nodeType": "failure",
					"parameters": []
				} ],
				"id": "cGb8EB3zdSmics9YtoTyCkUaw4YhR6tx",
				"nodeType": "sequence",
				"parameters": []
			}, {
				"children": [ {
					"children": [],
					"id": "WIrAZ6ZM0UVR8lhjGR91ZyaPIGsXXdTk",
					"nodeType": "luaCommand",
					"parameters": [ {
						"name": "var",
						"value": "topBoxes"
					}, {
						"name": "value",
						"value": "core.FilterUnitsByCategory(UnitsAtTop, Categories.nota_caklos_testenemybot.DeathBoxes)"
					}, {
						"name": "scriptName",
						"value": "store"
					} ],
					"scriptName": "store"
				}, {
					"children": [ {
						"children": [],
						"id": "SOIg194pALWg93KKTtNIq5W4iU6bfLKQ",
						"nodeType": "luaCommand",
						"parameters": [ {
							"name": "unitName",
							"value": "\"armbox\""
						}, {
							"name": "count",
							"value": "1"
						}, {
							"name": "prices",
							"value": "missionInfo.buy"
						}, {
							"name": "scriptName",
							"value": "nota_caklos_testenemybot.BuyUnitSwampDota"
						} ],
						"scriptName": "nota_caklos_testenemybot.BuyUnitSwampDota"
					} ],
					"id": "Scbkg51yECDosrLVGgQTKlZtRvRbKbR2",
					"nodeType": "luaCondition",
					"parameters": [ {
						"name": "expression",
						"value": "#topBoxes < 1 and #boxes < 1"
					}, {
						"name": "repeat",
						"value": "false"
					} ]
				} ],
				"id": "Mpi29JYBiU6Dqk7QYm9jExstahCxy4Ff",
				"nodeType": "sequence",
				"parameters": []
			}, {
				"children": [ {
					"children": [],
					"id": "RBxMSrz3q4RTlF7EklVtRteR4fjIh1sE",
					"nodeType": "luaCommand",
					"parameters": [ {
						"name": "var",
						"value": "midBoxes"
					}, {
						"name": "value",
						"value": "core.FilterUnitsByCategory(UnitsAtMid, Categories.nota_caklos_testenemybot.DeathBoxes)"
					}, {
						"name": "scriptName",
						"value": "store"
					} ],
					"scriptName": "store"
				}, {
					"children": [ {
						"children": [],
						"id": "Zc5gEVxACW4SXtqap6U1hl3HF3n4ZZ7D",
						"nodeType": "luaCommand",
						"parameters": [ {
							"name": "unitName",
							"value": "\"armbox\""
						}, {
							"name": "count",
							"value": "1"
						}, {
							"name": "prices",
							"value": "missionInfo.buy"
						}, {
							"name": "scriptName",
							"value": "nota_caklos_testenemybot.BuyUnitSwampDota"
						} ],
						"scriptName": "nota_caklos_testenemybot.BuyUnitSwampDota"
					} ],
					"id": "HBD7Hfg1qiEDYqc9YlHXRQSNudUXFGpM",
					"nodeType": "luaCondition",
					"parameters": [ {
						"name": "expression",
						"value": "#midBoxes < 1 and #boxes < 1"
					}, {
						"name": "repeat",
						"value": "false"
					} ]
				} ],
				"id": "FpLZLvf74H81LLg5VrihV3g1Fbe87SjW",
				"nodeType": "sequence",
				"parameters": []
			}, {
				"children": [ {
					"children": [],
					"id": "xM8c1RU9L2UHZ6EhcrSnibeg2pYGBaAf",
					"nodeType": "luaCommand",
					"parameters": [ {
						"name": "var",
						"value": "botBoxes"
					}, {
						"name": "value",
						"value": "core.FilterUnitsByCategory(UnitsAtBot, Categories.nota_caklos_testenemybot.DeathBoxes)"
					}, {
						"name": "scriptName",
						"value": "store"
					} ],
					"scriptName": "store"
				}, {
					"children": [ {
						"children": [],
						"id": "1qet28TSsyClezicRyibWMBOj6uKVpOI",
						"nodeType": "luaCommand",
						"parameters": [ {
							"name": "unitName",
							"value": "\"armbox\""
						}, {
							"name": "count",
							"value": "1"
						}, {
							"name": "prices",
							"value": "missionInfo.buy"
						}, {
							"name": "scriptName",
							"value": "nota_caklos_testenemybot.BuyUnitSwampDota"
						} ],
						"scriptName": "nota_caklos_testenemybot.BuyUnitSwampDota"
					} ],
					"id": "bh2Fts709FLJQvOH7jXeCXx44KMtkGjl",
					"nodeType": "luaCondition",
					"parameters": [ {
						"name": "expression",
						"value": "#botBoxes < 1 and #boxes < 1"
					}, {
						"name": "repeat",
						"value": "false"
					} ]
				} ],
				"id": "GZ93DhbeirxznTY7i987gjUEmuwNmPAn",
				"nodeType": "sequence",
				"parameters": []
			} ],
			"id": "JgzbzORVgl2aFj7ohHflGL9YjQd73Jfu",
			"nodeType": "selector",
			"parameters": [ {
				"name": "active",
				"value": "false"
			} ]
		}, {
			"children": [ {
				"children": [],
				"id": "24NqTschLQxwauRNint8xRTMEbtJMOEL",
				"nodeType": "luaCommand",
				"parameters": [ {
					"name": "var",
					"value": "farks"
				}, {
					"name": "value",
					"value": "core.FilterUnitsByCategory(AllUnits, Categories.nota_caklos_testenemybot.FARKS)"
				}, {
					"name": "scriptName",
					"value": "store"
				} ],
				"scriptName": "store"
			}, {
				"children": [ {
					"children": [ {
						"children": [],
						"id": "fd0WLldZgzNLswq3LDb8vi8z8Y7tZgQR",
						"nodeType": "luaCommand",
						"parameters": [ {
							"name": "unitName",
							"value": "\"armfark\""
						}, {
							"name": "count",
							"value": "1"
						}, {
							"name": "prices",
							"value": "missionInfo.buy"
						}, {
							"name": "scriptName",
							"value": "nota_caklos_testenemybot.BuyUnitSwampDota"
						} ],
						"scriptName": "nota_caklos_testenemybot.BuyUnitSwampDota"
					} ],
					"id": "MCOLTg80PRpdZQULLEYy9FMkX97Hyxfu",
					"nodeType": "luaCondition",
					"parameters": [ {
						"name": "expression",
						"value": "#farks < 3"
					}, {
						"name": "repeat",
						"value": "false"
					} ]
				}, {
					"children": [ {
						"children": [],
						"id": "2Zya0Tg1DdzqPebdMU2EVJNAIWxZ0Vxl",
						"nodeType": "luaCommand",
						"parameters": [ {
							"name": "unitName",
							"value": "\"armfark\""
						}, {
							"name": "count",
							"value": "1"
						}, {
							"name": "prices",
							"value": "missionInfo.buy"
						}, {
							"name": "scriptName",
							"value": "nota_caklos_testenemybot.BuyUnitSwampDota"
						} ],
						"scriptName": "nota_caklos_testenemybot.BuyUnitSwampDota"
					} ],
					"id": "P0ckCTgUfjSqQHrXtl4JpcgvZKAeWMc8",
					"nodeType": "luaCondition",
					"parameters": [ {
						"name": "expression",
						"value": "#farks < 9"
					}, {
						"name": "repeat",
						"value": "false"
					} ]
				} ],
				"id": "117pHiFLwIjHehFcj0VcslovTJjchxIm",
				"nodeType": "luaCondition",
				"parameters": [ {
					"name": "expression",
					"value": "#AllBoxes < 3"
				}, {
					"name": "repeat",
					"value": "false"
				} ]
			} ],
			"id": "UgNVfWISzlBhPk5vxNGmCt5ZGZJDVCLj",
			"nodeType": "sequence",
			"parameters": []
		}, {
			"children": [ {
				"children": [],
				"id": "dnK2pBxwOGU5aTVHRRQkX1aNNhylrCkM",
				"nodeType": "luaCommand",
				"parameters": [ {
					"name": "var",
					"value": "lugers"
				}, {
					"name": "value",
					"value": "core.FilterUnitsByCategory(AllUnits, Categories.nota_caklos_testenemybot.Lugers)"
				}, {
					"name": "scriptName",
					"value": "store"
				} ],
				"scriptName": "store"
			}, {
				"children": [ {
					"children": [],
					"id": "KHyirl0u8PH7QVH8zuoseqlDBDWUnaSd",
					"nodeType": "luaCommand",
					"parameters": [ {
						"name": "unitName",
						"value": "\"armmart\""
					}, {
						"name": "count",
						"value": "1"
					}, {
						"name": "prices",
						"value": "missionInfo.buy"
					}, {
						"name": "scriptName",
						"value": "nota_caklos_testenemybot.BuyUnitSwampDota"
					} ],
					"scriptName": "nota_caklos_testenemybot.BuyUnitSwampDota"
				} ],
				"id": "mqrrHl5JKw9xNQFmP2opCxHhpCTQJSeO",
				"nodeType": "luaCondition",
				"parameters": [ {
					"name": "expression",
					"value": "#lugers < 6"
				}, {
					"name": "repeat",
					"value": "false"
				} ]
			} ],
			"id": "I5AxVQQ7ga3if2jkWTBvcNLZ4seaR10l",
			"nodeType": "sequence",
			"parameters": []
		}, {
			"children": [ {
				"children": [],
				"id": "ER8DqDo4vtgM9W7JIZVbAk9og9JGjO4z",
				"nodeType": "luaCommand",
				"parameters": [ {
					"name": "lineName",
					"value": "\"GoodMiddle\""
				}, {
					"name": "count",
					"value": "6"
				}, {
					"name": "prices",
					"value": "missionInfo.upgrade.line"
				}, {
					"name": "scriptName",
					"value": "nota_caklos_testenemybot.UpgradeLaneSwampDota"
				} ],
				"scriptName": "nota_caklos_testenemybot.UpgradeLaneSwampDota"
			}, {
				"children": [ {
					"children": [],
					"id": "lVJvAKPSvbeNsA19cYNvimWb3CYByZcd",
					"nodeType": "luaCommand",
					"parameters": [ {
						"name": "lineName",
						"value": "\"GoodBottom\""
					}, {
						"name": "count",
						"value": "6"
					}, {
						"name": "prices",
						"value": "missionInfo.upgrade.line"
					}, {
						"name": "scriptName",
						"value": "nota_caklos_testenemybot.UpgradeLaneSwampDota"
					} ],
					"scriptName": "nota_caklos_testenemybot.UpgradeLaneSwampDota"
				}, {
					"children": [],
					"id": "t8V4e7kI1HmdPG6qCf40XtiCbOxe93Tt",
					"nodeType": "luaCommand",
					"parameters": [ {
						"name": "lineName",
						"value": "\"GoodTop\""
					}, {
						"name": "count",
						"value": "6"
					}, {
						"name": "prices",
						"value": "missionInfo.upgrade.line"
					}, {
						"name": "scriptName",
						"value": "nota_caklos_testenemybot.UpgradeLaneSwampDota"
					} ],
					"scriptName": "nota_caklos_testenemybot.UpgradeLaneSwampDota"
				} ],
				"id": "KM0GbLpNynNXfr5AUHKPRw6UwOj785NN",
				"nodeType": "luaCondition",
				"parameters": [ {
					"name": "expression",
					"value": "missionInfo.goodStrongpoints < 15"
				}, {
					"name": "repeat",
					"value": "false"
				} ]
			} ],
			"id": "hXU43OvJZoZc6xYI06YSLlv5ghWfHV0r",
			"nodeType": "luaCondition",
			"parameters": [ {
				"name": "expression",
				"value": "missionInfo.goodStrongpoints < 12"
			}, {
				"name": "repeat",
				"value": "false"
			} ]
		} ],
		"id": "yNt6nlIlRDfmjHSJrAkTzXrFD6lWYOQn",
		"nodeType": "parallel",
		"parameters": [ {
			"name": "mode",
			"value": "any-success"
		} ]
	}
}