{
	"additionalNodes": [],
	"additionalParameters": {
		"root": {
			"height": 148,
			"width": 263
		}
	},
	"inputs": [ {
		"command": "BETS_POSITION",
		"name": "regroupPos"
	} ],
	"outputs": [],
	"properties": {
		"2fcyluJ3b2sPQOT4XItxo3WFEzN7H1h2": {
			"height": 54,
			"title": "success",
			"width": 132,
			"x": 897,
			"y": -155
		},
		"9cIca42eD7hrYKsuvOcEzgfa8rl8TWiY": {
			"height": 94,
			"title": "store",
			"width": 740,
			"x": 1012,
			"y": 593
		},
		"9pL5KVurfmt8AiqnuVY4x6lHblQaJZbS": {
			"height": 256,
			"title": "reference",
			"width": 502,
			"x": 1025,
			"y": 1244
		},
		"ANuSJCESpaks37nXBxlUeYU40DOstBWr": {
			"height": 256,
			"title": "reference",
			"width": 502,
			"x": 1025,
			"y": 1499
		},
		"AbmPj7xJp6TgerVlsyDDmbAJ6IvbZvWU": {
			"height": 90,
			"title": "luaCondition",
			"width": 245,
			"x": 796,
			"y": -84
		},
		"D395g8DcVfGYAYwgGtyL164R0DjPsZLP": {
			"height": 60,
			"title": "repeat",
			"width": 131,
			"x": 576,
			"y": 218
		},
		"DlzwWOMVnKPdZ1Gt6KkaG775qHkKYkho": {
			"height": 60,
			"title": "repeat",
			"width": 131,
			"x": 575,
			"y": 1052
		},
		"IlCVkhVbmENkdD0YHl9z6uJqHc32mfjR": {
			"height": 90,
			"title": "luaCondition",
			"width": 194,
			"x": 752,
			"y": 1302
		},
		"KwK4JAJPiUOY3jdqL6qBMaSPf3ZJAaxU": {
			"height": 70,
			"title": "roleSplit",
			"width": 202,
			"x": 644,
			"y": -228
		},
		"M8OVnHYZpoyCpxTowURxINlRXU0iX5Vq": {
			"height": 94,
			"title": "store",
			"width": 579,
			"x": 1011,
			"y": 497
		},
		"Mm2QMLA1JXMvfnQjlnhhzMpVTuJamEzS": {
			"height": 94,
			"title": "store",
			"width": 622,
			"x": 1009,
			"y": 405
		},
		"NCuiLOwk9BlLd9D5iG0qMc952cqXU4bL": {
			"height": 60,
			"title": "repeat",
			"width": 131,
			"x": 580,
			"y": 821
		},
		"RFBCJwz9KYBaiplT1vuBiRo8sB16EHB2": {
			"height": 219,
			"title": "reference",
			"width": 462,
			"x": 1030,
			"y": 765
		},
		"T8y0D3EvSHMw00h7QHXlnd4toGQjjY7G": {
			"height": 94,
			"title": "store",
			"width": 445,
			"x": 1006,
			"y": 119
		},
		"Tu1MSnkugxds1MJKOP1sgFX1tgzWDyNJ": {
			"height": 60,
			"title": "sequence",
			"width": 143,
			"x": 749,
			"y": 218
		},
		"WBBw4XWU2sysNviieCi6POVct3JbAbpJ": {
			"height": 60,
			"title": "repeat",
			"width": 131,
			"x": 617,
			"y": -73
		},
		"Xvp7Z3fy89Kz3JHb03YAo1Qgx4j4L5BQ": {
			"height": 90,
			"title": "luaCondition",
			"width": 194,
			"x": 751,
			"y": 1041
		},
		"YNL2HW7tyZQJiRZUlBZjwgUQfeM5meuN": {
			"height": 256,
			"title": "reference",
			"width": 470,
			"x": 1024,
			"y": 983
		},
		"YpUIuqJj6xh7aAvfNfIa4zGjE13g072y": {
			"height": 92,
			"title": "store",
			"width": 131,
			"x": 1126,
			"y": -348
		},
		"biqfWxDmGVZzOJQGwNNhNNppASSN8BZg": {
			"height": 90,
			"title": "luaCondition",
			"width": 194,
			"x": 764,
			"y": 810
		},
		"dyTf5shDSkwmcB85KooBU4jYEqIm2pWf": {
			"height": 70,
			"title": "parallel",
			"width": 202,
			"x": 320,
			"y": 30
		},
		"fcuAD1hEmNjafTd9bCXU3muiCe2ZqliT": {
			"height": 94,
			"title": "store",
			"width": 259,
			"x": 1010,
			"y": 28
		},
		"gGBbqaHIHA6nAExG0MGEhrmk96DC7hbk": {
			"height": 60,
			"title": "repeat",
			"width": 131,
			"x": 576,
			"y": 1313
		},
		"i6xG64XZUlpFl0jS5YuZdahdKZCCmbjs": {
			"height": 94,
			"title": "store",
			"width": 427,
			"x": 1005,
			"y": 306
		},
		"oewbhkXJZwimdjMnqXqcxjL7uK3OiEgG": {
			"height": 90,
			"title": "luaCondition",
			"width": 194,
			"x": 758,
			"y": 1557
		},
		"rVR69v3LkRhAo1Y7GolQNCtfPjAN9yhJ": {
			"height": 54,
			"title": "success",
			"width": 132,
			"x": 1257,
			"y": -282
		},
		"vMJOu3ZELZv1BevOjtGKIUOQeeqrt3WY": {
			"height": 54,
			"title": "nota_common.manualMissionEnd",
			"width": 296,
			"x": 1116,
			"y": -71
		},
		"wXvTbJ2X4rZtH7QAgN2YjKKxfSp6T94e": {
			"height": 94,
			"title": "store",
			"width": 485,
			"x": 1004,
			"y": 209
		},
		"xRvtjSvoyqSyl8PzoGgr8QiVplmv1tSm": {
			"height": 60,
			"title": "repeat",
			"width": 131,
			"x": 583,
			"y": 1568
		},
		"zYpM0G7b5UXr4E1AmvoZktysHz5TX9d6": {
			"height": 90,
			"title": "luaCondition",
			"width": 194,
			"x": 891,
			"y": -337
		}
	},
	"roles": [ {
		"categories": [ "nota_caklos_testenemybot.Atlases" ],
		"name": "Role 0"
	}, {
		"categories": [],
		"name": "Role 2"
	} ],
	"root": {
		"children": [ {
			"children": [ {
				"children": [ {
					"children": [],
					"id": "YpUIuqJj6xh7aAvfNfIa4zGjE13g072y",
					"nodeType": "luaCommand",
					"parameters": [ {
						"name": "var",
						"value": "Atlases"
					}, {
						"name": "value",
						"value": "units"
					}, {
						"name": "scriptName",
						"value": "store"
					} ],
					"scriptName": "store"
				}, {
					"children": [],
					"id": "rVR69v3LkRhAo1Y7GolQNCtfPjAN9yhJ",
					"nodeType": "success",
					"parameters": []
				} ],
				"id": "zYpM0G7b5UXr4E1AmvoZktysHz5TX9d6",
				"nodeType": "luaCondition",
				"parameters": [ {
					"name": "expression",
					"value": "not Atlases"
				}, {
					"name": "repeat",
					"value": "false"
				} ]
			}, {
				"children": [],
				"id": "2fcyluJ3b2sPQOT4XItxo3WFEzN7H1h2",
				"nodeType": "success",
				"parameters": []
			} ],
			"id": "KwK4JAJPiUOY3jdqL6qBMaSPf3ZJAaxU",
			"nodeType": "roleSplit",
			"parameters": [ {
				"name": "mode",
				"value": "all-success"
			} ]
		}, {
			"children": [ {
				"children": [ {
					"children": [],
					"id": "vMJOu3ZELZv1BevOjtGKIUOQeeqrt3WY",
					"nodeType": "luaCommand",
					"parameters": [ {
						"name": "scriptName",
						"value": "nota_common.manualMissionEnd"
					} ],
					"scriptName": "nota_common.manualMissionEnd"
				} ],
				"id": "AbmPj7xJp6TgerVlsyDDmbAJ6IvbZvWU",
				"nodeType": "luaCondition",
				"parameters": [ {
					"name": "expression",
					"value": "core.MissionInfo().score >= 160"
				}, {
					"name": "repeat",
					"value": "false"
				} ]
			} ],
			"id": "WBBw4XWU2sysNviieCi6POVct3JbAbpJ",
			"nodeType": "repeat",
			"parameters": []
		}, {
			"children": [ {
				"children": [ {
					"children": [],
					"id": "fcuAD1hEmNjafTd9bCXU3muiCe2ZqliT",
					"nodeType": "luaCommand",
					"parameters": [ {
						"name": "var",
						"value": "rescueZone"
					}, {
						"name": "value",
						"value": "core.MissionInfo().safeArea"
					}, {
						"name": "scriptName",
						"value": "store"
					} ],
					"scriptName": "store"
				}, {
					"children": [],
					"id": "T8y0D3EvSHMw00h7QHXlnd4toGQjjY7G",
					"nodeType": "luaCommand",
					"parameters": [ {
						"name": "var",
						"value": "canyonSamples"
					}, {
						"name": "value",
						"value": "nota_caklos_testenemybot.MapCanyons(200, -100, 50)"
					}, {
						"name": "scriptName",
						"value": "store"
					} ],
					"scriptName": "store"
				}, {
					"children": [],
					"id": "wXvTbJ2X4rZtH7QAgN2YjKKxfSp6T94e",
					"nodeType": "luaCommand",
					"parameters": [ {
						"name": "var",
						"value": "gridConnections"
					}, {
						"name": "value",
						"value": "nota_caklos_testenemybot.CreateGrid(canyonSamples, 300)"
					}, {
						"name": "scriptName",
						"value": "store"
					} ],
					"scriptName": "store"
				}, {
					"children": [],
					"id": "i6xG64XZUlpFl0jS5YuZdahdKZCCmbjs",
					"nodeType": "luaCommand",
					"parameters": [ {
						"name": "var",
						"value": "allUnitsToRescue"
					}, {
						"name": "value",
						"value": "nota_caklos_testenemybot.GetAllTransportableUnits()"
					}, {
						"name": "scriptName",
						"value": "store"
					} ],
					"scriptName": "store"
				}, {
					"children": [],
					"id": "Mm2QMLA1JXMvfnQjlnhhzMpVTuJamEzS",
					"nodeType": "luaCommand",
					"parameters": [ {
						"name": "var",
						"value": "rescued"
					}, {
						"name": "value",
						"value": "nota_caklos_testenemybot.GetFriendlyUnits(rescueZone.center, rescueZone.radius)"
					}, {
						"name": "scriptName",
						"value": "store"
					} ],
					"scriptName": "store"
				}, {
					"children": [],
					"id": "M8OVnHYZpoyCpxTowURxINlRXU0iX5Vq",
					"nodeType": "luaCommand",
					"parameters": [ {
						"name": "var",
						"value": "unitsToRescue"
					}, {
						"name": "value",
						"value": "nota_caklos_testenemybot.RemoveUnitsFromList(allUnitsToRescue, rescued)"
					}, {
						"name": "scriptName",
						"value": "store"
					} ],
					"scriptName": "store"
				}, {
					"children": [],
					"id": "9cIca42eD7hrYKsuvOcEzgfa8rl8TWiY",
					"nodeType": "luaCommand",
					"parameters": [ {
						"name": "var",
						"value": "assigned"
					}, {
						"name": "value",
						"value": "nota_caklos_testenemybot.ttdrAssigningUnitsToAtlases(assigned, unitsToRescue, rescued, Atlases)"
					}, {
						"name": "scriptName",
						"value": "store"
					} ],
					"scriptName": "store"
				} ],
				"id": "Tu1MSnkugxds1MJKOP1sgFX1tgzWDyNJ",
				"nodeType": "sequence",
				"parameters": []
			} ],
			"id": "D395g8DcVfGYAYwgGtyL164R0DjPsZLP",
			"nodeType": "repeat",
			"parameters": []
		}, {
			"children": [ {
				"children": [ {
					"children": [],
					"id": "RFBCJwz9KYBaiplT1vuBiRo8sB16EHB2",
					"nodeType": "reference",
					"parameters": [ {
						"name": "behaviourName",
						"value": "nota_caklos_testenemybot.ttdrParallelRescue"
					} ],
					"referenceInputs": [ {
						"name": "regroupPos",
						"value": "regroupPos"
					}, {
						"name": "gridConnections",
						"value": "gridConnections"
					}, {
						"name": "assigned",
						"value": "assigned"
					}, {
						"name": "rescueZone",
						"value": "rescueZone"
					}, {
						"name": "atlases",
						"value": "{Atlases[1], Atlases[2], Atlases[3], Atlases[4], Atlases[5]}"
					} ],
					"referenceOutputs": []
				} ],
				"id": "biqfWxDmGVZzOJQGwNNhNNppASSN8BZg",
				"nodeType": "luaCondition",
				"parameters": [ {
					"name": "expression",
					"value": "true"
				}, {
					"name": "repeat",
					"value": "true"
				} ]
			} ],
			"id": "NCuiLOwk9BlLd9D5iG0qMc952cqXU4bL",
			"nodeType": "repeat",
			"parameters": []
		}, {
			"children": [ {
				"children": [ {
					"children": [],
					"id": "YNL2HW7tyZQJiRZUlBZjwgUQfeM5meuN",
					"nodeType": "reference",
					"parameters": [ {
						"name": "behaviourName",
						"value": "nota_caklos_testenemybot.ttdrParallelRescue"
					} ],
					"referenceInputs": [ {
						"name": "regroupPos",
						"value": "regroupPos"
					}, {
						"name": "gridConnections",
						"value": "gridConnections"
					}, {
						"name": "assigned",
						"value": "assigned"
					}, {
						"name": "rescueZone",
						"value": "rescueZone"
					}, {
						"name": "atlases",
						"value": "{Atlases[6], Atlases[7], Atlases[8], Atlases[9], Atlases[10]}"
					} ],
					"referenceOutputs": []
				} ],
				"id": "Xvp7Z3fy89Kz3JHb03YAo1Qgx4j4L5BQ",
				"nodeType": "luaCondition",
				"parameters": [ {
					"name": "expression",
					"value": "true"
				}, {
					"name": "repeat",
					"value": "true"
				} ]
			} ],
			"id": "DlzwWOMVnKPdZ1Gt6KkaG775qHkKYkho",
			"nodeType": "repeat",
			"parameters": []
		}, {
			"children": [ {
				"children": [ {
					"children": [],
					"id": "9pL5KVurfmt8AiqnuVY4x6lHblQaJZbS",
					"nodeType": "reference",
					"parameters": [ {
						"name": "behaviourName",
						"value": "nota_caklos_testenemybot.ttdrParallelRescue"
					} ],
					"referenceInputs": [ {
						"name": "regroupPos",
						"value": "regroupPos"
					}, {
						"name": "gridConnections",
						"value": "gridConnections"
					}, {
						"name": "assigned",
						"value": "assigned"
					}, {
						"name": "rescueZone",
						"value": "rescueZone"
					}, {
						"name": "atlases",
						"value": "{Atlases[11], Atlases[12], Atlases[13], Atlases[14], Atlases[15]}"
					} ],
					"referenceOutputs": []
				} ],
				"id": "IlCVkhVbmENkdD0YHl9z6uJqHc32mfjR",
				"nodeType": "luaCondition",
				"parameters": [ {
					"name": "expression",
					"value": "true"
				}, {
					"name": "repeat",
					"value": "true"
				} ]
			} ],
			"id": "gGBbqaHIHA6nAExG0MGEhrmk96DC7hbk",
			"nodeType": "repeat",
			"parameters": []
		}, {
			"children": [ {
				"children": [ {
					"children": [],
					"id": "ANuSJCESpaks37nXBxlUeYU40DOstBWr",
					"nodeType": "reference",
					"parameters": [ {
						"name": "behaviourName",
						"value": "nota_caklos_testenemybot.ttdrParallelRescue"
					} ],
					"referenceInputs": [ {
						"name": "regroupPos",
						"value": "regroupPos"
					}, {
						"name": "gridConnections",
						"value": "gridConnections"
					}, {
						"name": "assigned",
						"value": "assigned"
					}, {
						"name": "rescueZone",
						"value": "rescueZone"
					}, {
						"name": "atlases",
						"value": "{Atlases[16], Atlases[17], Atlases[18], Atlases[19], Atlases[20]}"
					} ],
					"referenceOutputs": []
				} ],
				"id": "oewbhkXJZwimdjMnqXqcxjL7uK3OiEgG",
				"nodeType": "luaCondition",
				"parameters": [ {
					"name": "expression",
					"value": "true"
				}, {
					"name": "repeat",
					"value": "true"
				} ]
			} ],
			"id": "xRvtjSvoyqSyl8PzoGgr8QiVplmv1tSm",
			"nodeType": "repeat",
			"parameters": []
		} ],
		"id": "dyTf5shDSkwmcB85KooBU4jYEqIm2pWf",
		"nodeType": "parallel",
		"parameters": [ {
			"name": "mode",
			"value": "all-success"
		} ]
	}
}